RTL_testcases/IP_Catalog_Designs/dsp_generator_AB_16X10_signed/results_dir/dsp_AB_16x10_signed/run_1/IPs/simulation/rapidsilicon/ip/dsp_generator/v1_0/dsp_AB_16x10_signed/dsp.vcd
$date
	Thu Feb 22 15:39:21 2024
$end
$version
	Icarus Verilog
$end
$timescale
	1ps
$end
$scope module tb_dsp $end
$var wire 26 ! z2 [25:0] $end
$var wire 26 " z1 [25:0] $end
$var reg 16 # a [15:0] $end
$var reg 16 $ a1 [15:0] $end
$var reg 10 % b [9:0] $end
$var reg 10 & b1 [9:0] $end
$var reg 1 ' clk1 $end
$var reg 7 ( cycle [6:0] $end
$var reg 1 ) reset $end
$var integer 32 * i [31:0] $end
$var integer 32 + mismatch [31:0] $end
$scope module dut1 $end
$var wire 16 , a [15:0] $end
$var wire 16 - a_1 [15:0] $end
$var wire 10 . b [9:0] $end
$var wire 10 / b_1 [9:0] $end
$var wire 1 ' clk $end
$var wire 1 ) reset $end
$var wire 1 0 sys_clk $end
$var wire 1 1 sys_rst $end
$var wire 26 2 z [25:0] $end
$var wire 26 3 z_1 [25:0] $end
$var parameter 32 4 IP_ID $end
$var parameter 32 5 IP_TYPE $end
$var parameter 32 6 IP_VERSION $end
$scope module DSP38 $end
$var wire 20 7 A [19:0] $end
$var wire 6 8 ACC_FIR [5:0] $end
$var wire 18 9 B [17:0] $end
$var wire 1 0 CLK $end
$var wire 3 : FEEDBACK [2:0] $end
$var wire 1 ; LOAD_ACC $end
$var wire 1 1 RESET $end
$var wire 1 < ROUND $end
$var wire 1 = SATURATE $end
$var wire 6 > SHIFT_RIGHT [5:0] $end
$var wire 1 ? SUBTRACT $end
$var wire 1 @ UNSIGNED_A $end
$var wire 1 A UNSIGNED_B $end
$var wire 38 B Z [37:0] $end
$var parameter 20 C COEFF_0 $end
$var parameter 20 D COEFF_1 $end
$var parameter 20 E COEFF_2 $end
$var parameter 20 F COEFF_3 $end
$var parameter 64 G DSP_MODE $end
$var parameter 32 H INPUT_REG_EN $end
$var parameter 32 I OUTPUT_REG_EN $end
$var reg 18 J DLY_B [17:0] $end
$var reg 20 K a_int [19:0] $end
$var reg 20 L a_reg [19:0] $end
$var reg 6 M acc_fir_int [5:0] $end
$var reg 6 N acc_fir_reg [5:0] $end
$var reg 64 O accumulator [63:0] $end
$var reg 64 P add_sub_in [63:0] $end
$var reg 64 Q add_sub_out [63:0] $end
$var reg 18 R b_int [17:0] $end
$var reg 18 S b_reg [17:0] $end
$var reg 3 T feedback_int [2:0] $end
$var reg 3 U feedback_reg [2:0] $end
$var reg 1 V load_acc_int $end
$var reg 1 W load_acc_reg $end
$var reg 20 X mult_a [19:0] $end
$var reg 18 Y mult_b [17:0] $end
$var reg 64 Z mult_out [63:0] $end
$var reg 64 [ pre_shift [63:0] $end
$var reg 64 \ round [63:0] $end
$var reg 1 ] round_int $end
$var reg 1 ^ round_reg1 $end
$var reg 1 _ round_reg2 $end
$var reg 38 ` saturate [37:0] $end
$var reg 1 a saturate_int $end
$var reg 1 b saturate_reg1 $end
$var reg 1 c saturate_reg2 $end
$var reg 64 d shift_right [63:0] $end
$var reg 6 e shift_right_int [5:0] $end
$var reg 6 f shift_right_reg1 [5:0] $end
$var reg 6 g shift_right_reg2 [5:0] $end
$var reg 1 h subtract_int $end
$var reg 1 i subtract_reg $end
$var reg 1 j unsigned_a_int $end
$var reg 1 k unsigned_a_reg $end
$var reg 1 l unsigned_b_int $end
$var reg 1 m unsigned_b_reg $end
$var reg 38 n z_out [37:0] $end
$var reg 38 o z_out_reg [37:0] $end
$upscope $end
$upscope $end
$scope module dut2 $end
$var wire 16 p a [15:0] $end
$var wire 10 q b [9:0] $end
$var wire 26 r z [25:0] $end
$upscope $end
$scope task compare $end
$var integer 32 s cycle [31:0] $end
$upscope $end
$upscope $end
$enddefinitions $end
$comment Show the parameter values. $end
$dumpall
b1010100010100100101010101000101 I
b1010100010100100101010101000101 H
b100110101010101010011000101010001001001010100000100110001011001 G
b0 F
b0 E
b0 D
b0 C
b1 6
b1000100010100110101000001000111 5
b101011000100011100111010101 4
$end
#0
$dumpvars
bx s
b1 r
b1111111111 q
b1111111111111111 p
b0 o
b0 n
1m
1l
1k
1j
0i
0h
b0 g
b0 f
b0 e
b0 d
0c
0b
0a
b0 `
0_
0^
0]
b0 \
b0 [
b0 Z
b0 Y
b0 X
0W
0V
b0 U
b0 T
b0 S
b0 R
b0 Q
b0 P
b0 O
b0 N
b0 M
b0 L
b0 K
b0 J
b0 B
0A
0@
z?
bz >
z=
z<
z;
b0 :
b111111111111111111 9
bz 8
b11111111111111111111 7
b0 3
b0 2
11
10
b1111111111 /
b1111111111 .
b1111111111111111 -
b1111111111111111 ,
b0 +
b0 *
1)
bx (
1'
bx &
b1111111111 %
bx $
b1111111111111111 #
b0 "
b1 !
$end
#2000
01
0)
#5000
00
0'
#10000
b1 [
b1 Q
b1 n
bx `
bx \
bx d
b1 Z
b111111111111111111 Y
b11111111111111111111 X
za
z]
bz e
0l
0j
zV
bz M
zh
b111111111111111111 R
b11111111111111111111 K
b111111111111111111 J
0m
0k
b111111111111111111 S
b11111111111111111111 L
zW
zb
z^
bz f
bz N
zi
10
1'
#15000
00
0'
#20000
b1 "
b1 2
b1 3
zc
z_
bz g
b1 B
b1 o
10
1'
#25000
00
0'
#30000
b0 9
b0 /
b0 %
b0 .
b0 q
b0 7
b0 -
b0 !
b0 r
b0 #
b0 ,
b0 p
b1111111111 &
b1111111111111111 $
b1 *
b0xxxxxxx s
10
1'
#35000
00
0'
#40000
b0 n
b0 [
b0 Q
b0 Z
b0 Y
b0 X
b0 R
b0 K
b0 S
b0 L
b0 J
10
1'
#45000
00
0'
#50000
b0 "
b0 2
b0 3
b0 B
b0 o
10
1'
#55000
00
0'
#60000
b111111111010000001 9
b1010000001 /
b11101100000111111100100100 !
b11101100000111111100100100 r
b1010000001 %
b1010000001 .
b1010000001 q
b11010100100100 7
b11010100100100 -
b11010100100100 #
b11010100100100 ,
b11010100100100 p
b0 &
b0 $
b10 *
10
1'
#65000
00
0'
#70000
b11111111111111101100000111111100100100 n
b1111111111111111111111111111111111111111101100000111111100100100 [
b1111111111111111111111111111111111111111101100000111111100100100 Q
b1111111111111111111111111111111111111111101100000111111100100100 Z
b111111111010000001 Y
b11010100100100 X
b111111111010000001 R
b11010100100100 K
b111111111010000001 J
b111111111010000001 S
b11010100100100 L
10
1'
#75000
00
0'
#80000
b11101100000111111100100100 "
b11101100000111111100100100 2
b11101100000111111100100100 3
b11111111111111101100000111111100100100 B
b11111111111111101100000111111100100100 o
10
1'
#85000
00
0'
#90000
b111111111001100011 9
b1001100011 /
b1001100011 %
b1001100011 .
b1001100011 q
b11111101011000001001 7
b1101011000001001 -
b10000111011001101111011 !
b10000111011001101111011 r
b1101011000001001 #
b1101011000001001 ,
b1101011000001001 p
b1010000001 &
b11010100100100 $
b11 *
10
1'
#95000
00
0'
#100000
b10000111011001101111011 n
b10000111011001101111011 [
b10000111011001101111011 Q
b10000111011001101111011 Z
b111111111001100011 Y
b11111101011000001001 X
b111111111001100011 R
b11111101011000001001 K
b111111111001100011 S
b11111101011000001001 L
b111111111001100011 J
10
1'
#105000
00
0'
#110000
b10000111011001101111011 "
b10000111011001101111011 2
b10000111011001101111011 3
b10000111011001101111011 B
b10000111011001101111011 o
10
1'
#115000
00
0'
#120000
b110001101 9
b110001101 /
b110001101 %
b110001101 .
b110001101 q
b111101100001101 7
b111101100001101 -
b101111101101001100101001 !
b101111101101001100101001 r
b111101100001101 #
b111101100001101 ,
b111101100001101 p
b1001100011 &
b1101011000001001 $
b100 *
10
1'
#125000
00
0'
#130000
b101111101101001100101001 n
b101111101101001100101001 [
b101111101101001100101001 Q
b101111101101001100101001 Z
b110001101 Y
b111101100001101 X
b110001101 R
b111101100001101 K
b110001101 J
b110001101 S
b111101100001101 L
10
1'
#135000
00
0'
#140000
b101111101101001100101001 "
b101111101101001100101001 2
b101111101101001100101001 3
b101111101101001100101001 B
b101111101101001100101001 o
10
1'
#145000
00
0'
#150000
b111111111000010010 9
b1000010010 /
b1000010010 %
b1000010010 .
b1000010010 q
b11111000010001100101 7
b1000010001100101 -
b111011101000010100011010 !
b111011101000010100011010 r
b1000010001100101 #
b1000010001100101 ,
b1000010001100101 p
b110001101 &
b111101100001101 $
b101 *
10
1'
#155000
00
0'
#160000
b111011101000010100011010 n
b111011101000010100011010 [
b111011101000010100011010 Q
b111011101000010100011010 Z
b111111111000010010 Y
b11111000010001100101 X
b111111111000010010 R
b11111000010001100101 K
b111111111000010010 S
b11111000010001100101 L
b111111111000010010 J
10
1'
#165000
00
0'
#170000
b111011101000010100011010 "
b111011101000010100011010 2
b111011101000010100011010 3
b111011101000010100011010 B
b111011101000010100011010 o
10
1'
#175000
00
0'
#180000
b100001101 9
b100001101 /
b100001101 %
b100001101 .
b100001101 q
b11111110001100000001 7
b1110001100000001 -
b11111000011000100000001101 !
b11111000011000100000001101 r
b1110001100000001 #
b1110001100000001 ,
b1110001100000001 p
b1000010010 &
b1000010001100101 $
b110 *
10
1'
#185000
00
0'
#190000
b11111111111111111000011000100000001101 n
b1111111111111111111111111111111111111111111000011000100000001101 [
b1111111111111111111111111111111111111111111000011000100000001101 Q
b1111111111111111111111111111111111111111111000011000100000001101 Z
b100001101 Y
b11111110001100000001 X
b100001101 R
b11111110001100000001 K
b100001101 J
b100001101 S
b11111110001100000001 L
10
1'
#195000
00
0'
#200000
b11111000011000100000001101 "
b11111000011000100000001101 2
b11111000011000100000001101 3
b11111111111111111000011000100000001101 B
b11111111111111111000011000100000001101 o
10
1'
#205000
00
0'
#210000
b100111101 9
b100111101 /
b100111101 %
b100111101 .
b100111101 q
b11111111000101110110 7
b1111000101110110 -
b11111011011111111100011110 !
b11111011011111111100011110 r
b1111000101110110 #
b1111000101110110 ,
b1111000101110110 p
b100001101 &
b1110001100000001 $
b111 *
10
1'
#215000
00
0'
#220000
b11111111111111111011011111111100011110 n
b1111111111111111111111111111111111111111111011011111111100011110 [
b1111111111111111111111111111111111111111111011011111111100011110 Q
b1111111111111111111111111111111111111111111011011111111100011110 Z
b100111101 Y
b11111111000101110110 X
b100111101 R
b11111111000101110110 K
b100111101 S
b11111111000101110110 L
b100111101 J
10
1'
#225000
00
0'
#230000
b11111011011111111100011110 "
b11111011011111111100011110 2
b11111011011111111100011110 3
b11111111111111111011011111111100011110 B
b11111111111111111011011111111100011110 o
10
1'
#235000
00
0'
#240000
b111111111110001100 9
b1110001100 /
b1110001100 %
b1110001100 .
b1110001100 q
b101011111101101 7
b101011111101101 -
b11110110000010100010011100 !
b11110110000010100010011100 r
b101011111101101 #
b101011111101101 ,
b101011111101101 p
b100111101 &
b1111000101110110 $
b1000 *
10
1'
#245000
00
0'
#250000
b11111111111111110110000010100010011100 n
b1111111111111111111111111111111111111111110110000010100010011100 [
b1111111111111111111111111111111111111111110110000010100010011100 Q
b1111111111111111111111111111111111111111110110000010100010011100 Z
b111111111110001100 Y
b101011111101101 X
b111111111110001100 R
b101011111101101 K
b111111111110001100 J
b111111111110001100 S
b101011111101101 L
10
1'
#255000
00
0'
#260000
b11110110000010100010011100 "
b11110110000010100010011100 2
b11110110000010100010011100 3
b11111111111111110110000010100010011100 B
b11111111111111110110000010100010011100 o
10
1'
#265000
00
0'
#270000
b11000110 9
b11000110 /
b11000110 %
b11000110 .
b11000110 q
b11111110100111111001 7
b1110100111111001 -
b11111011101111011010010110 !
b11111011101111011010010110 r
b1110100111111001 #
b1110100111111001 ,
b1110100111111001 p
b1110001100 &
b101011111101101 $
b1001 *
10
1'
#275000
00
0'
#280000
b11111111111111111011101111011010010110 n
b1111111111111111111111111111111111111111111011101111011010010110 [
b1111111111111111111111111111111111111111111011101111011010010110 Q
b1111111111111111111111111111111111111111111011101111011010010110 Z
b11000110 Y
b11111110100111111001 X
b11000110 R
b11111110100111111001 K
b11000110 S
b11111110100111111001 L
b11000110 J
10
1'
#285000
00
0'
#290000
b11111011101111011010010110 "
b11111011101111011010010110 2
b11111011101111011010010110 3
b11111111111111111011101111011010010110 B
b11111111111111111011101111011010010110 o
10
1'
#295000
00
0'
#300000
b111111111010101010 9
b1010101010 /
b1010101010 %
b1010101010 .
b1010101010 q
b11111000010011000101 7
b1000010011000101 -
b101001001010000011010010 !
b101001001010000011010010 r
b1000010011000101 #
b1000010011000101 ,
b1000010011000101 p
b11000110 &
b1110100111111001 $
b1010 *
10
1'
#305000
00
0'
#310000
b101001001010000011010010 n
b101001001010000011010010 [
b101001001010000011010010 Q
b101001001010000011010010 Z
b111111111010101010 Y
b11111000010011000101 X
b111111111010101010 R
b11111000010011000101 K
b111111111010101010 J
b111111111010101010 S
b11111000010011000101 L
10
1'
#315000
00
0'
#320000
b101001001010000011010010 "
b101001001010000011010010 2
b101001001010000011010010 3
b101001001010000011010010 B
b101001001010000011010010 o
10
1'
#325000
00
0'
#330000
b111111111001110111 9
b1001110111 /
b1001110111 %
b1001110111 .
b1001110111 q
b11111111011111100101 7
b1111011111100101 -
b11000111000101110011 !
b11000111000101110011 r
b1111011111100101 #
b1111011111100101 ,
b1111011111100101 p
b1010101010 &
b1000010011000101 $
b1011 *
10
1'
#335000
00
0'
#340000
b11000111000101110011 n
b11000111000101110011 [
b11000111000101110011 Q
b11000111000101110011 Z
b111111111001110111 Y
b11111111011111100101 X
b111111111001110111 R
b11111111011111100101 K
b111111111001110111 S
b11111111011111100101 L
b111111111001110111 J
10
1'
#345000
00
0'
#350000
b11000111000101110011 "
b11000111000101110011 2
b11000111000101110011 3
b11000111000101110011 B
b11000111000101110011 o
10
1'
#355000
00
0'
#360000
b111111111110001111 9
b1110001111 /
b1110001111 %
b1110001111 .
b1110001111 q
b11111101011000010010 7
b1101011000010010 -
b100101000001000001110 !
b100101000001000001110 r
b1101011000010010 #
b1101011000010010 ,
b1101011000010010 p
b1001110111 &
b1111011111100101 $
b1100 *
10
1'
#365000
00
0'
#370000
b100101000001000001110 n
b100101000001000001110 [
b100101000001000001110 Q
b100101000001000001110 Z
b111111111110001111 Y
b11111101011000010010 X
b111111111110001111 R
b11111101011000010010 K
b111111111110001111 J
b111111111110001111 S
b11111101011000010010 L
10
1'
#375000
00
0'
#380000
b100101000001000001110 "
b100101000001000001110 2
b100101000001000001110 3
b100101000001000001110 B
b100101000001000001110 o
10
1'
#385000
00
0'
#390000
b111111111011001110 9
b1011001110 /
b1011001110 %
b1011001110 .
b1011001110 q
b110100111110010 7
b110100111110010 -
b11100000010101110010111100 !
b11100000010101110010111100 r
b110100111110010 #
b110100111110010 ,
b110100111110010 p
b1110001111 &
b1101011000010010 $
b1101 *
10
1'
#395000
00
0'
#400000
b11111111111111100000010101110010111100 n
b1111111111111111111111111111111111111111100000010101110010111100 [
b1111111111111111111111111111111111111111100000010101110010111100 Q
b1111111111111111111111111111111111111111100000010101110010111100 Z
b111111111011001110 Y
b110100111110010 X
b111111111011001110 R
b110100111110010 K
b111111111011001110 S
b110100111110010 L
b111111111011001110 J
10
1'
#405000
00
0'
#410000
b11100000010101110010111100 "
b11100000010101110010111100 2
b11100000010101110010111100 3
b11111111111111100000010101110010111100 B
b11111111111111100000010101110010111100 o
10
1'
#415000
00
0'
#420000
b111111111011000101 9
b1011000101 /
b1011000101 %
b1011000101 .
b1011000101 q
b111101011101000 7
b111101011101000 -
b11011010001100010010001000 !
b11011010001100010010001000 r
b111101011101000 #
b111101011101000 ,
b111101011101000 p
b1011001110 &
b110100111110010 $
b1110 *
10
1'
#425000
00
0'
#430000
b11111111111111011010001100010010001000 n
b1111111111111111111111111111111111111111011010001100010010001000 [
b1111111111111111111111111111111111111111011010001100010010001000 Q
b1111111111111111111111111111111111111111011010001100010010001000 Z
b111111111011000101 Y
b111101011101000 X
b111111111011000101 R
b111101011101000 K
b111111111011000101 J
b111111111011000101 S
b111101011101000 L
10
1'
#435000
00
0'
#440000
b11011010001100010010001000 "
b11011010001100010010001000 2
b11011010001100010010001000 3
b11111111111111011010001100010010001000 B
b11111111111111011010001100010010001000 o
10
1'
#445000
00
0'
#450000
b10111101 9
b10111101 /
b10111101 %
b10111101 .
b10111101 q
b100100101011100 7
b100100101011100 -
b1101100010100011101100 !
b1101100010100011101100 r
b100100101011100 #
b100100101011100 ,
b100100101011100 p
b1011000101 &
b111101011101000 $
b1111 *
10
1'
#455000
00
0'
#460000
b1101100010100011101100 n
b1101100010100011101100 [
b1101100010100011101100 Q
b1101100010100011101100 Z
b10111101 Y
b100100101011100 X
b10111101 R
b100100101011100 K
b10111101 S
b100100101011100 L
b10111101 J
10
1'
#465000
00
0'
#470000
b1101100010100011101100 "
b1101100010100011101100 2
b1101100010100011101100 3
b1101100010100011101100 B
b1101100010100011101100 o
10
1'
#475000
00
0'
#480000
b111111111001100101 9
b1001100101 /
b1001100101 %
b1001100101 .
b1001100101 q
b101100000101101 7
b101100000101101 -
b11011100100110111111000001 !
b11011100100110111111000001 r
b101100000101101 #
b101100000101101 ,
b101100000101101 p
b10111101 &
b100100101011100 $
b10000 *
10
1'
#485000
00
0'
#490000
b11111111111111011100100110111111000001 n
b1111111111111111111111111111111111111111011100100110111111000001 [
b1111111111111111111111111111111111111111011100100110111111000001 Q
b1111111111111111111111111111111111111111011100100110111111000001 Z
b111111111001100101 Y
b101100000101101 X
b111111111001100101 R
b101100000101101 K
b111111111001100101 J
b111111111001100101 S
b101100000101101 L
10
1'
#495000
00
0'
#500000
b11011100100110111111000001 "
b11011100100110111111000001 2
b11011100100110111111000001 3
b11111111111111011100100110111111000001 B
b11111111111111011100100110111111000001 o
10
1'
#505000
00
0'
#510000
b111111111100001010 9
b1100001010 /
b1100001010 %
b1100001010 .
b1100001010 q
b110001001100011 7
b110001001100011 -
b11101000010111010011011110 !
b11101000010111010011011110 r
b110001001100011 #
b110001001100011 ,
b110001001100011 p
b1001100101 &
b101100000101101 $
b10001 *
10
1'
#515000
00
0'
#520000
b11111111111111101000010111010011011110 n
b1111111111111111111111111111111111111111101000010111010011011110 [
b1111111111111111111111111111111111111111101000010111010011011110 Q
b1111111111111111111111111111111111111111101000010111010011011110 Z
b111111111100001010 Y
b110001001100011 X
b111111111100001010 R
b110001001100011 K
b111111111100001010 S
b110001001100011 L
b111111111100001010 J
10
1'
#525000
00
0'
#530000
b11101000010111010011011110 "
b11101000010111010011011110 2
b11101000010111010011011110 3
b11111111111111101000010111010011011110 B
b11111111111111101000010111010011011110 o
10
1'
#535000
00
0'
#540000
b100100000 9
b100100000 /
b100100000 %
b100100000 .
b100100000 q
b10001010000000 7
b10001010000000 -
b1001101101000000000000 !
b1001101101000000000000 r
b10001010000000 #
b10001010000000 ,
b10001010000000 p
b1100001010 &
b110001001100011 $
b10010 *
10
1'
#545000
00
0'
#550000
b1001101101000000000000 n
b1001101101000000000000 [
b1001101101000000000000 Q
b1001101101000000000000 Z
b100100000 Y
b10001010000000 X
b100100000 R
b10001010000000 K
b100100000 J
b100100000 S
b10001010000000 L
10
1'
#555000
00
0'
#560000
b1001101101000000000000 "
b1001101101000000000000 2
b1001101101000000000000 3
b1001101101000000000000 B
b1001101101000000000000 o
10
1'
#565000
00
0'
#570000
b10011101 9
b10011101 /
b10011101 %
b10011101 .
b10011101 q
b100010110101010 7
b100010110101010 -
b1010101011100101000010 !
b1010101011100101000010 r
b100010110101010 #
b100010110101010 ,
b100010110101010 p
b100100000 &
b10001010000000 $
b10011 *
10
1'
#575000
00
0'
#580000
b1010101011100101000010 n
b1010101011100101000010 [
b1010101011100101000010 Q
b1010101011100101000010 Z
b10011101 Y
b100010110101010 X
b10011101 R
b100010110101010 K
b10011101 S
b100010110101010 L
b10011101 J
10
1'
#585000
00
0'
#590000
b1010101011100101000010 "
b1010101011100101000010 2
b1010101011100101000010 3
b1010101011100101000010 B
b1010101011100101000010 o
10
1'
#595000
00
0'
#600000
b10011 9
b10011 /
b10011 %
b10011 .
b10011 q
b11111010010110 7
b11111010010110 -
b1001010010100100010 !
b1001010010100100010 r
b11111010010110 #
b11111010010110 ,
b11111010010110 p
b10011101 &
b100010110101010 $
b10100 *
10
1'
#605000
00
0'
#610000
b1001010010100100010 n
b1001010010100100010 [
b1001010010100100010 Q
b1001010010100100010 Z
b10011 Y
b11111010010110 X
b10011 R
b11111010010110 K
b10011 J
b10011 S
b11111010010110 L
10
1'
#615000
00
0'
#620000
b1001010010100100010 "
b1001010010100100010 2
b1001010010100100010 3
b1001010010100100010 B
b1001010010100100010 o
10
1'
#625000
00
0'
#630000
b111111111001010011 9
b1001010011 /
b1001010011 %
b1001010011 .
b1001010011 q
b11100000001101 7
b11100000001101 -
b11101000100001001000110111 !
b11101000100001001000110111 r
b11100000001101 #
b11100000001101 ,
b11100000001101 p
b10011 &
b11111010010110 $
b10101 *
10
1'
#635000
00
0'
#640000
b11111111111111101000100001001000110111 n
b1111111111111111111111111111111111111111101000100001001000110111 [
b1111111111111111111111111111111111111111101000100001001000110111 Q
b1111111111111111111111111111111111111111101000100001001000110111 Z
b111111111001010011 Y
b11100000001101 X
b111111111001010011 R
b11100000001101 K
b111111111001010011 S
b11100000001101 L
b111111111001010011 J
10
1'
#645000
00
0'
#650000
b11101000100001001000110111 "
b11101000100001001000110111 2
b11101000100001001000110111 3
b11111111111111101000100001001000110111 B
b11111111111111101000100001001000110111 o
10
1'
#655000
00
0'
#660000
b111111111011010101 9
b1011010101 /
b1011010101 %
b1011010101 .
b1011010101 q
b11111101110101101011 7
b1101110101101011 -
b1010000110010000000111 !
b1010000110010000000111 r
b1101110101101011 #
b1101110101101011 ,
b1101110101101011 p
b1001010011 &
b11100000001101 $
b10110 *
10
1'
#665000
00
0'
#670000
b1010000110010000000111 n
b1010000110010000000111 [
b1010000110010000000111 Q
b1010000110010000000111 Z
b111111111011010101 Y
b11111101110101101011 X
b111111111011010101 R
b11111101110101101011 K
b111111111011010101 J
b111111111011010101 S
b11111101110101101011 L
10
1'
#675000
00
0'
#680000
b1010000110010000000111 "
b1010000110010000000111 2
b1010000110010000000111 3
b1010000110010000000111 B
b1010000110010000000111 o
10
1'
#685000
00
0'
#690000
b111111111010101110 9
b1010101110 /
b1010101110 %
b1010101110 .
b1010101110 q
b100101000000010 7
b100101000000010 -
b11100111100100100101011100 !
b11100111100100100101011100 r
b100101000000010 #
b100101000000010 ,
b100101000000010 p
b1011010101 &
b1101110101101011 $
b10111 *
10
1'
#695000
00
0'
#700000
b11111111111111100111100100100101011100 n
b1111111111111111111111111111111111111111100111100100100101011100 [
b1111111111111111111111111111111111111111100111100100100101011100 Q
b1111111111111111111111111111111111111111100111100100100101011100 Z
b111111111010101110 Y
b100101000000010 X
b111111111010101110 R
b100101000000010 K
b111111111010101110 S
b100101000000010 L
b111111111010101110 J
10
1'
#705000
00
0'
#710000
b11100111100100100101011100 "
b11100111100100100101011100 2
b11100111100100100101011100 3
b11111111111111100111100100100101011100 B
b11111111111111100111100100100101011100 o
10
1'
#715000
00
0'
#720000
b111111111011001111 9
b1011001111 /
b1011001111 %
b1011001111 .
b1011001111 q
b11111110100100011101 7
b1110100100011101 -
b110110100010001110011 !
b110110100010001110011 r
b1110100100011101 #
b1110100100011101 ,
b1110100100011101 p
b1010101110 &
b100101000000010 $
b11000 *
10
1'
#725000
00
0'
#730000
b110110100010001110011 n
b110110100010001110011 [
b110110100010001110011 Q
b110110100010001110011 Z
b111111111011001111 Y
b11111110100100011101 X
b111111111011001111 R
b11111110100100011101 K
b111111111011001111 J
b111111111011001111 S
b11111110100100011101 L
10
1'
#735000
00
0'
#740000
b110110100010001110011 "
b110110100010001110011 2
b110110100010001110011 3
b110110100010001110011 B
b110110100010001110011 o
10
1'
#745000
00
0'
#750000
b100001010 9
b100001010 /
b100001010 %
b100001010 .
b100001010 q
b100100100100011 7
b100100100100011 -
b10010111111111001011110 !
b10010111111111001011110 r
b100100100100011 #
b100100100100011 ,
b100100100100011 p
b1011001111 &
b1110100100011101 $
b11001 *
10
1'
#755000
00
0'
#760000
b10010111111111001011110 n
b10010111111111001011110 [
b10010111111111001011110 Q
b10010111111111001011110 Z
b100001010 Y
b100100100100011 X
b100001010 R
b100100100100011 K
b100001010 S
b100100100100011 L
b100001010 J
10
1'
#765000
00
0'
#770000
b10010111111111001011110 "
b10010111111111001011110 2
b10010111111111001011110 3
b10010111111111001011110 B
b10010111111111001011110 o
10
1'
#775000
00
0'
#780000
b111100 9
b111100 /
b111100 %
b111100 .
b111100 q
b101011001010 7
b101011001010 -
b101000011101011000 !
b101000011101011000 r
b101011001010 #
b101011001010 ,
b101011001010 p
b100001010 &
b100100100100011 $
b11010 *
10
1'
#785000
00
0'
#790000
b101000011101011000 n
b101000011101011000 [
b101000011101011000 Q
b101000011101011000 Z
b111100 Y
b101011001010 X
b111100 R
b101011001010 K
b111100 J
b111100 S
b101011001010 L
10
1'
#795000
00
0'
#800000
b101000011101011000 "
b101000011101011000 2
b101000011101011000 3
b101000011101011000 B
b101000011101011000 o
10
1'
#805000
00
0'
#810000
b110001010 9
b110001010 /
b110001010 %
b110001010 .
b110001010 q
b11111011110111110010 7
b1011110111110010 -
b11100110100101011001110100 !
b11100110100101011001110100 r
b1011110111110010 #
b1011110111110010 ,
b1011110111110010 p
b111100 &
b101011001010 $
b11011 *
10
1'
#815000
00
0'
#820000
b11111111111111100110100101011001110100 n
b1111111111111111111111111111111111111111100110100101011001110100 [
b1111111111111111111111111111111111111111100110100101011001110100 Q
b1111111111111111111111111111111111111111100110100101011001110100 Z
b110001010 Y
b11111011110111110010 X
b110001010 R
b11111011110111110010 K
b110001010 S
b11111011110111110010 L
b110001010 J
10
1'
#825000
00
0'
#830000
b11100110100101011001110100 "
b11100110100101011001110100 2
b11100110100101011001110100 3
b11111111111111100110100101011001110100 B
b11111111111111100110100101011001110100 o
10
1'
#835000
00
0'
#840000
b11011000 9
b11011000 /
b11011000 %
b11011000 .
b11011000 q
b11111011001101000001 7
b1011001101000001 -
b11101111110011111011011000 !
b11101111110011111011011000 r
b1011001101000001 #
b1011001101000001 ,
b1011001101000001 p
b110001010 &
b1011110111110010 $
b11100 *
10
1'
#845000
00
0'
#850000
b11111111111111101111110011111011011000 n
b1111111111111111111111111111111111111111101111110011111011011000 [
b1111111111111111111111111111111111111111101111110011111011011000 Q
b1111111111111111111111111111111111111111101111110011111011011000 Z
b11011000 Y
b11111011001101000001 X
b11011000 R
b11111011001101000001 K
b11011000 J
b11011000 S
b11111011001101000001 L
10
1'
#855000
00
0'
#860000
b11101111110011111011011000 "
b11101111110011111011011000 2
b11101111110011111011011000 3
b11111111111111101111110011111011011000 B
b11111111111111101111110011111011011000 o
10
1'
#865000
00
0'
#870000
b111111111010001001 9
b1010001001 /
b1010001001 %
b1010001001 .
b1010001001 q
b11111111001101111000 7
b1111001101111000 -
b100100101101100111000 !
b100100101101100111000 r
b1111001101111000 #
b1111001101111000 ,
b1111001101111000 p
b11011000 &
b1011001101000001 $
b11101 *
10
1'
#875000
00
0'
#880000
b100100101101100111000 n
b100100101101100111000 [
b100100101101100111000 Q
b100100101101100111000 Z
b111111111010001001 Y
b11111111001101111000 X
b111111111010001001 R
b11111111001101111000 K
b111111111010001001 S
b11111111001101111000 L
b111111111010001001 J
10
1'
#885000
00
0'
#890000
b100100101101100111000 "
b100100101101100111000 2
b100100101101100111000 3
b100100101101100111000 B
b100100101101100111000 o
10
1'
#895000
00
0'
#900000
b110110110 9
b110110110 /
b110110110 %
b110110110 .
b110110110 q
b110111101011 7
b110111101011 -
b101111101000000010010 !
b101111101000000010010 r
b110111101011 #
b110111101011 ,
b110111101011 p
b1010001001 &
b1111001101111000 $
b11110 *
10
1'
#905000
00
0'
#910000
b101111101000000010010 n
b101111101000000010010 [
b101111101000000010010 Q
b101111101000000010010 Z
b110110110 Y
b110111101011 X
b110110110 R
b110111101011 K
b110110110 J
b110110110 S
b110111101011 L
10
1'
#915000
00
0'
#920000
b101111101000000010010 "
b101111101000000010010 2
b101111101000000010010 3
b101111101000000010010 B
b101111101000000010010 o
10
1'
#925000
00
0'
#930000
b111111111110101110 9
b1110101110 /
b1110101110 %
b1110101110 .
b1110101110 q
b11111111100111000110 7
b1111100111000110 -
b11111111010010100 !
b11111111010010100 r
b1111100111000110 #
b1111100111000110 ,
b1111100111000110 p
b110110110 &
b110111101011 $
b11111 *
10
1'
#935000
00
0'
#940000
b11111111010010100 n
b11111111010010100 [
b11111111010010100 Q
b11111111010010100 Z
b111111111110101110 Y
b11111111100111000110 X
b111111111110101110 R
b11111111100111000110 K
b111111111110101110 S
b11111111100111000110 L
b111111111110101110 J
10
1'
#945000
00
0'
#950000
b11111111010010100 "
b11111111010010100 2
b11111111010010100 3
b11111111010010100 B
b11111111010010100 o
10
1'
#955000
00
0'
#960000
b100101010 9
b100101010 /
b100101010 %
b100101010 .
b100101010 q
b1010111100 7
b1010111100 -
b110010111011011000 !
b110010111011011000 r
b1010111100 #
b1010111100 ,
b1010111100 p
b1110101110 &
b1111100111000110 $
b100000 *
10
1'
#965000
00
0'
#970000
b110010111011011000 n
b110010111011011000 [
b110010111011011000 Q
b110010111011011000 Z
b100101010 Y
b1010111100 X
b100101010 R
b1010111100 K
b100101010 J
b100101010 S
b1010111100 L
10
1'
#975000
00
0'
#980000
b110010111011011000 "
b110010111011011000 2
b110010111011011000 3
b110010111011011000 B
b110010111011011000 o
10
1'
#985000
00
0'
#990000
b111111111001110001 9
b1001110001 /
b1001110001 %
b1001110001 .
b1001110001 q
b11111001101000001011 7
b1001101000001011 -
b100111101110100011011011 !
b100111101110100011011011 r
b1001101000001011 #
b1001101000001011 ,
b1001101000001011 p
b100101010 &
b1010111100 $
b100001 *
10
1'
#995000
00
0'
